{ "compressionlevel":-1,
 "height":14,
 "infinite":false,
 "layers":[
        {
         "data":[0, 0, 0, 0, 0, 0, 0, 0, 0, 0, 0, 0, 0, 0,
            0, 9, 7, 7, 7, 7, 7, 7, 7, 7, 7, 7, 0, 0,
            0, 8, 0, 0, 0, 0, 0, 0, 0, 0, 0, 0, 0, 0,
            0, 8, 0, 0, 0, 0, 0, 0, 0, 0, 0, 0, 0, 0,
            0, 8, 0, 0, 0, 0, 0, 0, 0, 0, 0, 0, 0, 0,
            0, 8, 0, 0, 0, 0, 0, 0, 0, 0, 0, 0, 0, 0,
            0, 0, 0, 0, 0, 0, 0, 0, 0, 0, 0, 0, 0, 0,
            0, 0, 0, 0, 0, 0, 0, 0, 0, 0, 0, 0, 0, 0,
            0, 0, 0, 0, 0, 0, 0, 0, 0, 0, 0, 0, 0, 0,
            0, 0, 0, 0, 0, 0, 0, 0, 0, 0, 0, 0, 0, 0,
            0, 0, 0, 0, 0, 0, 0, 0, 0, 0, 0, 0, 0, 0,
            0, 0, 0, 0, 0, 0, 0, 0, 0, 0, 0, 0, 0, 0,
            0, 0, 0, 0, 0, 0, 0, 0, 0, 0, 0, 0, 0, 0,
            0, 0, 0, 0, 0, 0, 0, 0, 0, 0, 0, 0, 0, 0],
         "height":14,
         "id":1,
         "name":"wall",
         "opacity":1,
         "properties":[
                {
                 "name":"depth",
                 "type":"int",
                 "value":0
                }],
         "type":"tilelayer",
         "visible":true,
         "width":14,
         "x":0,
         "y":0
        }, 
        {
         "draworder":"topdown",
         "id":5,
         "name":"doors",
         "objects":[
                {
                 "gid":65,
                 "height":36,
                 "id":1,
                 "name":"refectory_central_corridor",
                 "properties":[
                        {
                         "name":"collides",
                         "type":"bool",
                         "value":false
                        }, 
                        {
                         "name":"depth",
                         "type":"int",
                         "value":1
                        }, 
                        {
                         "name":"grouped",
                         "type":"bool",
                         "value":true
                        }, 
                        {
                         "name":"isoSizeX",
                         "type":"int",
                         "value":32
                        }, 
                        {
                         "name":"isoSizeY",
                         "type":"int",
                         "value":32
                        }],
                 "rotation":0,
                 "type":"door_ground",
                 "visible":true,
                 "width":64,
                 "x":18,
                 "y":110
                }, 
                {
                 "gid":118,
                 "height":73,
                 "id":2,
                 "name":"refectory_central_corridor",
                 "properties":[
                        {
                         "name":"depth",
                         "type":"int",
                         "value":2
                        }, 
                        {
                         "name":"grouped",
                         "type":"bool",
                         "value":true
                        }, 
                        {
                         "name":"isoSizeX",
                         "type":"int",
                         "value":4
                        }, 
                        {
                         "name":"isoSizeY",
                         "type":"int",
                         "value":32
                        }],
                 "rotation":0,
                 "type":"door",
                 "visible":true,
                 "width":48,
                 "x":-4.5,
                 "y":75.5
                }],
         "opacity":1,
         "type":"objectgroup",
         "visible":true,
         "x":0,
         "y":0
        }, 
        {
         "data":[0, 0, 0, 0, 0, 0, 0, 0, 0, 0, 0, 0, 0, 0,
            0, 0, 0, 0, 0, 0, 0, 0, 0, 0, 0, 0, 0, 0,
            0, 0, 0, 0, 0, 0, 0, 0, 0, 0, 0, 0, 0, 0,
            0, 0, 0, 0, 0, 0, 0, 0, 0, 0, 0, 0, 0, 0,
            0, 0, 0, 0, 0, 0, 0, 0, 0, 0, 0, 0, 0, 0,
            0, 0, 0, 0, 0, 0, 0, 0, 0, 0, 0, 0, 0, 0,
            0, 0, 0, 0, 0, 0, 0, 0, 0, 0, 0, 0, 0, 0,
            0, 0, 0, 0, 0, 0, 0, 0, 0, 0, 0, 0, 0, 0,
            0, 8, 0, 0, 0, 0, 0, 0, 0, 0, 0, 0, 0, 0,
            0, 8, 0, 0, 0, 0, 0, 0, 0, 0, 0, 0, 0, 0,
            0, 8, 0, 0, 0, 0, 0, 0, 0, 0, 0, 0, 0, 0,
            0, 8, 0, 0, 0, 0, 0, 0, 0, 0, 0, 0, 0, 0,
            0, 0, 0, 0, 0, 0, 0, 0, 0, 0, 0, 0, 0, 0,
            0, 0, 0, 0, 0, 0, 0, 0, 0, 0, 0, 0, 0, 0],
         "height":14,
         "id":2,
         "name":"wall",
         "opacity":1,
         "properties":[
                {
                 "name":"depth",
                 "type":"int",
                 "value":3
                }],
         "type":"tilelayer",
         "visible":true,
         "width":14,
         "x":0,
         "y":0
        }, 
        {
         "data":[0, 0, 0, 0, 0, 0, 0, 0, 0, 0, 0, 0, 0, 0,
            0, 0, 0, 0, 0, 0, 0, 0, 0, 0, 0, 0, 0, 0,
            0, 0, 20, 20, 20, 20, 20, 20, 20, 20, 20, 0, 0, 0,
            0, 0, 20, 20, 20, 20, 20, 20, 20, 20, 20, 0, 0, 0,
            0, 0, 20, 20, 20, 20, 20, 20, 20, 20, 20, 0, 0, 0,
            0, 0, 20, 20, 20, 20, 20, 20, 20, 20, 20, 0, 0, 0,
            0, 0, 20, 20, 20, 20, 20, 20, 20, 20, 20, 0, 0, 0,
            0, 0, 20, 20, 20, 20, 20, 20, 20, 20, 20, 0, 0, 0,
            0, 0, 20, 20, 20, 20, 20, 20, 20, 20, 20, 0, 0, 0,
            0, 0, 20, 20, 20, 20, 20, 20, 20, 20, 20, 0, 0, 0,
            0, 0, 20, 20, 20, 20, 20, 20, 20, 20, 20, 0, 0, 0,
            0, 0, 20, 20, 20, 20, 20, 20, 20, 20, 20, 0, 0, 0,
            0, 0, 0, 0, 0, 0, 0, 0, 0, 0, 0, 0, 0, 0,
            0, 0, 0, 0, 0, 0, 0, 0, 0, 0, 0, 0, 0, 0],
         "height":14,
         "id":3,
         "name":"ground",
         "opacity":1,
         "properties":[
                {
                 "name":"depth",
                 "type":"int",
                 "value":4
                }, 
                {
                 "name":"walkingDepth",
                 "type":"int",
                 "value":20
                }],
         "type":"tilelayer",
         "visible":true,
         "width":14,
         "x":0,
         "y":0
        }, 
        {
         "data":[0, 0, 0, 0, 0, 0, 0, 0, 0, 0, 0, 0, 0, 0,
            0, 0, 0, 0, 0, 0, 0, 0, 0, 0, 0, 0, 0, 0,
            0, 0, 0, 0, 0, 0, 0, 0, 0, 0, 0, 20, 0, 0,
            0, 0, 0, 0, 0, 0, 0, 0, 0, 0, 0, 20, 0, 0,
            0, 0, 0, 0, 0, 0, 0, 0, 0, 0, 0, 0, 0, 0,
            0, 0, 0, 0, 0, 0, 0, 0, 0, 0, 0, 0, 0, 0,
            0, 0, 0, 0, 0, 0, 0, 0, 0, 0, 0, 0, 0, 0,
            0, 0, 0, 0, 0, 0, 0, 0, 0, 0, 0, 0, 0, 0,
            0, 0, 0, 0, 0, 0, 0, 0, 0, 0, 0, 0, 0, 0,
            0, 0, 0, 0, 0, 0, 0, 0, 0, 0, 0, 0, 0, 0,
            0, 0, 0, 0, 0, 0, 0, 0, 0, 0, 0, 0, 0, 0,
            0, 0, 0, 0, 0, 0, 0, 0, 0, 0, 0, 0, 0, 0,
            0, 0, 0, 0, 0, 0, 0, 0, 0, 0, 0, 0, 0, 0,
            0, 0, 0, 0, 0, 0, 0, 0, 0, 0, 0, 0, 0, 0],
         "height":14,
         "id":7,
         "name":"ground",
         "opacity":1,
         "properties":[
                {
                 "name":"depth",
                 "type":"int",
                 "value":5
                }, 
                {
                 "name":"walkingDepth",
                 "type":"int",
                 "value":21
                }],
         "type":"tilelayer",
         "visible":true,
         "width":14,
         "x":0,
         "y":0
        }, 
        {
         "data":[0, 0, 0, 0, 0, 0, 0, 0, 0, 0, 0, 0, 0, 0,
            0, 0, 0, 0, 0, 0, 0, 0, 0, 0, 0, 0, 0, 0,
            0, 0, 0, 0, 0, 0, 0, 0, 0, 0, 0, 0, 0, 0,
            0, 0, 0, 0, 0, 0, 0, 0, 0, 0, 0, 0, 0, 0,
            0, 0, 0, 0, 0, 0, 0, 0, 0, 0, 0, 0, 0, 0,
            0, 0, 0, 0, 0, 0, 0, 0, 0, 0, 0, 0, 0, 0,
            0, 0, 0, 0, 0, 0, 0, 0, 0, 0, 0, 0, 0, 0,
            0, 0, 0, 0, 0, 0, 0, 0, 0, 0, 0, 0, 0, 0,
            0, 0, 0, 0, 0, 0, 0, 0, 0, 0, 0, 0, 0, 0,
            0, 0, 0, 0, 0, 0, 0, 0, 0, 0, 0, 0, 0, 0,
            0, 0, 0, 0, 0, 0, 0, 0, 0, 0, 0, 20, 0, 0,
            0, 0, 0, 0, 0, 0, 0, 0, 0, 0, 0, 20, 0, 0,
            0, 0, 0, 0, 0, 0, 0, 0, 0, 0, 0, 0, 0, 0,
            0, 0, 0, 0, 0, 0, 0, 0, 0, 0, 0, 0, 0, 0],
         "height":14,
         "id":8,
         "name":"ground",
         "opacity":1,
         "properties":[
                {
                 "name":"depth",
                 "type":"int",
                 "value":5
                }, 
                {
                 "name":"walkingDepth",
                 "type":"int",
                 "value":22
                }],
         "type":"tilelayer",
         "visible":true,
         "width":14,
         "x":0,
         "y":0
        }, 
        {
         "draworder":"topdown",
         "id":4,
         "name":"objects",
         "objects":[
                {
                 "gid":264,
                 "height":15,
                 "id":3,
                 "name":"wall_box",
                 "properties":[
                        {
                         "name":"collides",
                         "type":"bool",
                         "value":false
                        }, 
                        {
                         "name":"depth",
                         "type":"int",
                         "value":4
                        }, 
                        {
                         "name":"isoSizeX",
                         "type":"int",
                         "value":4
                        }, 
                        {
                         "name":"isoSizeY",
                         "type":"int",
                         "value":10
                        }],
                 "rotation":0,
                 "type":"decoration",
                 "visible":true,
                 "width":14,
                 "x":-6,
                 "y":145
                }, 
                {
                 "gid":4,
                 "height":81,
                 "id":4,
                 "name":"table",
                 "properties":[
                        {
                         "name":"collides",
                         "type":"bool",
                         "value":true
                        }, 
                        {
                         "name":"isoShiftHitboxX",
                         "type":"int",
                         "value":-12
                        }, 
                        {
                         "name":"isoShiftHitboxY",
                         "type":"int",
                         "value":-12
                        }, 
                        {
                         "name":"isoSizeX",
                         "type":"int",
                         "value":28
                        }, 
                        {
                         "name":"isoSizeY",
                         "type":"int",
                         "value":60
                        }],
                 "rotation":0,
                 "type":"decoration",
                 "visible":true,
                 "width":125,
                 "x":95.75,
                 "y":141.25
                }, 
                {
                 "gid":268,
                 "height":40,
                 "id":6,
                 "name":"shelf",
                 "properties":[
                        {
                         "name":"collides",
                         "type":"bool",
                         "value":true
                        }, 
                        {
                         "name":"isoSizeX",
                         "type":"int",
                         "value":16
                        }, 
                        {
                         "name":"isoSizeY",
                         "type":"int",
                         "value":16
                        }],
                 "rotation":0,
                 "type":"shelf",
                 "visible":true,
                 "width":33,
                 "x":152.25,
                 "y":71.75
                }, 
                {
                 "gid":3,
                 "height":41,
                 "id":7,
                 "name":"pneumatic_distributor",
                 "properties":[
                        {
                         "name":"collides",
                         "type":"bool",
                         "value":true
                        }, 
                        {
                         "name":"isoSizeX",
                         "type":"int",
                         "value":16
                        }, 
                        {
                         "name":"isoSizeY",
                         "type":"int",
                         "value":16
                        }],
                 "rotation":0,
                 "type":"decoration",
                 "visible":true,
                 "width":31,
                 "x":23.25,
                 "y":53.75
                }, 
                {
                 "gid":2,
                 "height":52,
                 "id":10,
                 "name":"coffee_machine_project",
                 "properties":[
                        {
                         "name":"collides",
                         "type":"bool",
                         "value":true
                        }, 
                        {
                         "name":"isoSizeX",
                         "type":"int",
                         "value":16
                        }, 
                        {
                         "name":"isoSizeY",
                         "type":"int",
                         "value":16
                        }],
                 "rotation":0,
                 "type":"equipment",
                 "visible":true,
                 "width":31,
                 "x":15.75,
                 "y":128.25
                }, 
                {
                 "gid":1,
                 "height":52,
                 "id":11,
                 "name":"coffee_machine",
                 "properties":[
                        {
                         "name":"collides",
                         "type":"bool",
                         "value":true
                        }, 
                        {
                         "name":"isoSizeX",
                         "type":"int",
                         "value":16
                        }, 
                        {
                         "name":"isoSizeY",
                         "type":"int",
                         "value":16
                        }],
                 "rotation":0,
                 "type":"equipment",
                 "visible":true,
                 "width":31,
                 "x":17.75,
                 "y":130.25
                }, 
                {
                 "gid":270,
                 "height":17,
                 "id":12,
                 "name":"camera_equipment",
                 "properties":[
                        {
                         "name":"animationYoyo",
                         "type":"bool",
                         "value":true
                        }, 
                        {
                         "name":"collides",
                         "type":"bool",
                         "value":false
                        }, 
                        {
                         "name":"depth",
                         "type":"int",
                         "value":5
                        }, 
                        {
                         "name":"isoSizeX",
                         "type":"int",
                         "value":16
                        }, 
                        {
                         "name":"isoSizeY",
                         "type":"int",
                         "value":16
                        }],
                 "rotation":0,
                 "type":"equipment",
                 "visible":true,
                 "width":25,
                 "x":-6.75,
                 "y":47.75
                }, 
                {
                 "gid":292,
                 "height":36,
                 "id":14,
                 "name":"chair_object",
                 "properties":[
                        {
                         "name":"collides",
                         "type":"bool",
                         "value":true
                        }, 
                        {
                         "name":"isoSizeX",
                         "type":"int",
                         "value":16
                        }, 
                        {
                         "name":"isoSizeY",
                         "type":"int",
                         "value":16
                        }, 
                        {
                         "name":"sitAnimation",
                         "type":"string",
                         "value":"sit_front"
                        }, 
                        {
                         "name":"sitAutoTrigger",
                         "type":"bool",
                         "value":true
                        }, 
                        {
                         "name":"sitDepth",
                         "type":"int",
                         "value":1
                        }, 
                        {
                         "name":"sitFlip",
                         "type":"bool",
                         "value":false
                        }, 
                        {
                         "name":"sitX",
                         "type":"float",
                         "value":0
                        }, 
                        {
                         "name":"sitY",
                         "type":"float",
                         "value":0
                        }],
                 "rotation":0,
                 "type":"interact",
                 "visible":true,
                 "width":34,
                 "x":66,
                 "y":162
                }, 
                {
                 "gid":292,
                 "height":36,
                 "id":15,
                 "name":"chair_object",
                 "properties":[
                        {
                         "name":"collides",
                         "type":"bool",
                         "value":true
                        }, 
                        {
                         "name":"isoSizeX",
                         "type":"int",
                         "value":16
                        }, 
                        {
                         "name":"isoSizeY",
                         "type":"int",
                         "value":16
                        }, 
                        {
                         "name":"sitAnimation",
                         "type":"string",
                         "value":"sit_front"
                        }, 
                        {
                         "name":"sitAutoTrigger",
                         "type":"bool",
                         "value":true
                        }, 
                        {
                         "name":"sitDepth",
                         "type":"int",
                         "value":1
                        }, 
                        {
                         "name":"sitFlip",
                         "type":"bool",
                         "value":false
                        }, 
                        {
                         "name":"sitX",
                         "type":"float",
                         "value":0
                        }, 
                        {
                         "name":"sitY",
                         "type":"float",
                         "value":0
                        }],
                 "rotation":0,
                 "type":"interact",
                 "visible":true,
                 "width":34,
                 "x":66,
                 "y":146
                }, 
                {
                 "gid":292,
                 "height":36,
                 "id":16,
                 "name":"chair_object",
                 "properties":[
                        {
                         "name":"collides",
                         "type":"bool",
                         "value":true
                        }, 
                        {
                         "name":"isoSizeX",
                         "type":"int",
                         "value":16
                        }, 
                        {
                         "name":"isoSizeY",
                         "type":"int",
                         "value":16
                        }, 
                        {
                         "name":"sitAnimation",
                         "type":"string",
                         "value":"sit_front"
                        }, 
                        {
                         "name":"sitAutoTrigger",
                         "type":"bool",
                         "value":true
                        }, 
                        {
                         "name":"sitDepth",
                         "type":"int",
                         "value":1
                        }, 
                        {
                         "name":"sitFlip",
                         "type":"bool",
                         "value":false
                        }, 
                        {
                         "name":"sitX",
                         "type":"float",
                         "value":0
                        }, 
                        {
                         "name":"sitY",
                         "type":"float",
                         "value":0
                        }],
                 "rotation":0,
                 "type":"interact",
                 "visible":true,
                 "width":34,
                 "x":66,
                 "y":130
                }, 
                {
                 "gid":292,
                 "height":36,
                 "id":17,
                 "name":"chair_object",
                 "properties":[
                        {
                         "name":"collides",
                         "type":"bool",
                         "value":true
                        }, 
                        {
                         "name":"isoSizeX",
                         "type":"int",
                         "value":16
                        }, 
                        {
                         "name":"isoSizeY",
                         "type":"int",
                         "value":16
                        }, 
                        {
                         "name":"sitAnimation",
                         "type":"string",
                         "value":"sit_front"
                        }, 
                        {
                         "name":"sitAutoTrigger",
                         "type":"bool",
                         "value":true
                        }, 
                        {
                         "name":"sitDepth",
                         "type":"int",
                         "value":1
                        }, 
                        {
                         "name":"sitFlip",
                         "type":"bool",
                         "value":false
                        }, 
                        {
                         "name":"sitX",
                         "type":"float",
                         "value":0
                        }, 
                        {
                         "name":"sitY",
                         "type":"float",
                         "value":0
                        }],
                 "rotation":0,
                 "type":"interact",
                 "visible":true,
                 "width":34,
                 "x":66,
                 "y":114
                }, 
                {
                 "gid":293,
                 "height":36,
                 "id":18,
                 "name":"chair_object",
                 "properties":[
                        {
                         "name":"collides",
                         "type":"bool",
                         "value":true
                        }, 
                        {
                         "name":"isoSizeX",
                         "type":"int",
                         "value":16
                        }, 
                        {
                         "name":"isoSizeY",
                         "type":"int",
                         "value":16
                        }, 
                        {
                         "name":"sitAnimation",
                         "type":"string",
                         "value":"sit_back"
                        }, 
                        {
                         "name":"sitAutoTrigger",
                         "type":"bool",
                         "value":true
                        }, 
                        {
                         "name":"sitDepth",
                         "type":"int",
                         "value":1
                        }, 
                        {
                         "name":"sitFlip",
                         "type":"bool",
                         "value":false
                        }, 
                        {
                         "name":"sitX",
                         "type":"float",
                         "value":-5
                        }, 
                        {
                         "name":"sitY",
                         "type":"float",
                         "value":-5
                        }],
                 "rotation":0,
                 "type":"interact",
                 "visible":true,
                 "width":34,
                 "x":121.5,
                 "y":164.5
                }, 
                {
                 "gid":293,
                 "height":36,
                 "id":19,
                 "name":"chair_object",
                 "properties":[
                        {
                         "name":"collides",
                         "type":"bool",
                         "value":true
                        }, 
                        {
                         "name":"isoSizeX",
                         "type":"int",
                         "value":16
                        }, 
                        {
                         "name":"isoSizeY",
                         "type":"int",
                         "value":16
                        }, 
                        {
                         "name":"sitAnimation",
                         "type":"string",
                         "value":"sit_back"
                        }, 
                        {
                         "name":"sitAutoTrigger",
                         "type":"bool",
                         "value":true
                        }, 
                        {
                         "name":"sitDepth",
                         "type":"int",
                         "value":1
                        }, 
                        {
                         "name":"sitFlip",
                         "type":"bool",
                         "value":false
                        }, 
                        {
                         "name":"sitX",
                         "type":"float",
                         "value":-5
                        }, 
                        {
                         "name":"sitY",
                         "type":"float",
                         "value":-5
                        }],
                 "rotation":0,
                 "type":"interact",
                 "visible":true,
                 "width":34,
                 "x":121.5,
                 "y":148.5
                }, 
                {
                 "gid":293,
                 "height":36,
                 "id":20,
                 "name":"chair_object",
                 "properties":[
                        {
                         "name":"collides",
                         "type":"bool",
                         "value":true
                        }, 
                        {
                         "name":"isoSizeX",
                         "type":"int",
                         "value":16
                        }, 
                        {
                         "name":"isoSizeY",
                         "type":"int",
                         "value":16
                        }, 
                        {
                         "name":"sitAnimation",
                         "type":"string",
                         "value":"sit_back"
                        }, 
                        {
                         "name":"sitAutoTrigger",
                         "type":"bool",
                         "value":true
                        }, 
                        {
                         "name":"sitDepth",
                         "type":"int",
                         "value":1
                        }, 
                        {
                         "name":"sitFlip",
                         "type":"bool",
                         "value":false
                        }, 
                        {
                         "name":"sitX",
                         "type":"float",
                         "value":-5
                        }, 
                        {
                         "name":"sitY",
                         "type":"float",
                         "value":-5
                        }],
                 "rotation":0,
                 "type":"interact",
                 "visible":true,
                 "width":34,
                 "x":121.5,
                 "y":132.5
                },
            
                {
                 "gid":293,
                 "height":36,
                 "id":21,
                 "name":"chair_object",
                 "properties":[
                        {
                         "name":"collides",
                         "type":"bool",
                         "value":true
                        }, 
                        {
                         "name":"isoSizeX",
                         "type":"int",
                         "value":16
                        }, 
                        {
                         "name":"isoSizeY",
                         "type":"int",
                         "value":16
                        }, 
                        {
                         "name":"sitAnimation",
                         "type":"string",
                         "value":"sit_back"
                        }, 
                        {
                         "name":"sitAutoTrigger",
                         "type":"bool",
                         "value":true
                        }, 
                        {
                         "name":"sitDepth",
                         "type":"int",
                         "value":1
                        }, 
                        {
                         "name":"sitFlip",
                         "type":"bool",
                         "value":false
                        }, 
                        {
                         "name":"sitX",
                         "type":"float",
                         "value":-5
                        }, 
                        {
                         "name":"sitY",
                         "type":"float",
                         "value":-5
                        }],
                 "rotation":0,
                 "type":"interact",
                 "visible":true,
                 "width":34,
                 "x":121.5,
                 "y":116.5
                }, 
                {
                 "gid":298,
                 "height":111,
                 "id":22,
                 "name":"kitchen",
                 "properties":[
                        {
                         "name":"collides",
                         "type":"bool",
                         "value":true
                        }, 
                        {
                         "name":"depth",
                         "type":"int",
                         "value":5
                        }, 
                        {
                         "name":"grouped",
                         "type":"bool",
                         "value":true
                        }, 
                        {
                         "name":"isoSizeX",
                         "type":"int",
                         "value":144
                        }, 
                        {
                         "name":"isoSizeY",
                         "type":"int",
                         "value":16
                        }],
                 "rotation":0,
                 "type":"equipment",
                 "visible":true,
                 "width":159,
                 "x":75.75,
                 "y":11.25
                }, 
                {
                 "gid":300,
                 "height":62,
                 "id":23,
                 "name":"kitchen",
                 "properties":[
                        {
                         "name":"collides",
                         "type":"bool",
                         "value":true
                        }, 
                        {
                         "name":"grouped",
                         "type":"bool",
                         "value":true
                        }, 
                        {
                         "name":"isoSizeX",
                         "type":"int",
                         "value":16
                        }, 
                        {
                         "name":"isoSizeY",
                         "type":"int",
                         "value":32
                        }],
                 "rotation":0,
                 "type":"equipment",
                 "visible":true,
                 "width":46,
                 "x":159,
                 "y":23
                }, 
                {
                 "gid":2147483960,
                 "height":47,
                 "id":24,
                 "name":"swedish_sofa",
                 "properties":[
                        {
                         "name":"collides",
                         "type":"bool",
                         "value":true
                        }, 
                        {
                         "name":"flipX",
                         "type":"bool",
                         "value":true
                        }, 
                        {
                         "name":"grouped",
                         "type":"bool",
                         "value":true
                        }, 
                        {
                         "name":"isoShiftHitboxX",
                         "type":"int",
                         "value":-4
                        }, 
                        {
                         "name":"isoShiftHitboxY",
                         "type":"int",
                         "value":-12
                        }, 
                        {
                         "name":"isoSizeX",
                         "type":"int",
                         "value":48
                        }, 
                        {
                         "name":"isoSizeY",
                         "type":"int",
                         "value":2
                        }, 
                        {
                         "name":"sitAnimation",
                         "type":"string",
                         "value":"lie_down"
                        }, 
                        {
                         "name":"sitAutoTrigger",
                         "type":"bool",
                         "value":false
                        }, 
                        {
                         "name":"sitDepth",
                         "type":"int",
                         "value":1
                        }, 
                        {
                         "name":"sitFlip",
                         "type":"bool",
                         "value":true
                        }, 
                        {
                         "name":"sitX",
                         "type":"float",
                         "value":0
                        }, 
                        {
                         "name":"sitY",
                         "type":"float",
                         "value":-3
                        }],
                 "rotation":0,
                 "type":"equipment",
                 "visible":true,
                 "width":62,
                 "x":41.5,
                 "y":169.5
                }, 
                {
                 "gid":2147483965,
                 "height":47,
                 "id":25,
                 "name":"swedish_sofa",
                 "properties":[
                        {
                         "name":"collides",
                         "type":"bool",
                         "value":true
                        }, 
                        {
                         "name":"flipX",
                         "type":"bool",
                         "value":true
                        }, 
                        {
                         "name":"grouped",
                         "type":"bool",
                         "value":true
                        }, 
                        {
                         "name":"isoShiftHitboxX",
                         "type":"int",
                         "value":-2
                        }, 
                        {
                         "name":"isoShiftHitboxY",
                         "type":"int",
                         "value":0
                        }, 
                        {
                         "name":"isoSizeX",
                         "type":"int",
                         "value":48
                        }, 
                        {
                         "name":"isoSizeY",
                         "type":"int",
                         "value":12
                        }],
                 "rotation":0,
                 "type":"equipment",
                 "visible":true,
                 "width":62,
                 "x":41.5,
                 "y":169.5
                }],
         "opacity":1,
         "type":"objectgroup",
         "visible":true,
         "x":0,
         "y":0
        }],
 "nextlayerid":9,
 "nextobjectid":26,
 "orientation":"isometric",
 "properties":[
        {
         "name":"animationYoyo",
         "type":"bool",
         "value":true
        }, 
        {
         "name":"collides",
         "type":"bool",
         "value":false
        }, 
        {
         "name":"depth",
         "type":"int",
         "value":5
        }, 
        {
         "name":"isoSizeX",
         "type":"int",
         "value":16
        }, 
        {
         "name":"isoSizeY",
         "type":"int",
         "value":16
        }],
 "renderorder":"right-down",
 "tiledversion":"git",
 "tileheight":16,
 "tilesets":[
        {
         "columns":2,
         "firstgid":1,
         "image":"tilemaps\/coffee_machine.png",
         "imageheight":52,
         "imagewidth":62,
         "margin":0,
         "name":"coffee_machine",
         "objectalignment":"center",
         "spacing":0,
         "tilecount":2,
         "tileheight":52,
         "tilewidth":31
        }, 
        {
         "columns":1,
         "firstgid":3,
         "image":"tilemaps\/pneumatic_distributor_2.png",
         "imageheight":41,
         "imagewidth":31,
         "margin":0,
         "name":"pneumatic_distributor_2",
         "objectalignment":"center",
         "spacing":0,
         "tilecount":1,
         "tileheight":41,
         "tilewidth":31
        }, 
        {
         "columns":2,
         "firstgid":4,
         "image":"tilemaps\/table.png",
         "imageheight":81,
         "imagewidth":250,
         "margin":0,
         "name":"table",
         "objectalignment":"center",
         "spacing":0,
         "tilecount":2,
         "tileheight":81,
         "tilewidth":125
        }, 
        {
         "columns":14,
         "firstgid":6,
         "grid":
            {
             "height":72,
             "orientation":"isometric",
             "width":32
            },
         "image":"tilemaps\/wall_tileset.png",
         "imageheight":72,
         "imagewidth":448,
         "margin":0,
         "name":"wall_tileset",
         "objectalignment":"center",
         "spacing":0,
         "tilecount":14,
         "tileheight":72,
         "tilewidth":32
        }, 
        {
         "columns":30,
         "firstgid":20,
         "grid":
            {
             "height":72,
             "orientation":"isometric",
             "width":32
            },
         "image":"tilemaps\/ground_tileset.png",
         "imageheight":72,
         "imagewidth":960,
         "margin":0,
         "name":"ground_tileset",
         "objectalignment":"center",
         "spacing":0,
         "tilecount":30,
         "tileheight":72,
         "tilewidth":32
        }, 
        {
         "columns":5,
         "firstgid":50,
         "grid":
            {
             "height":36,
             "orientation":"isometric",
             "width":64
            },
         "image":"tilemaps\/door_ground_tileset.png",
         "imageheight":144,
         "imagewidth":320,
         "margin":0,
         "name":"door_ground_tileset",
         "objectalignment":"center",
         "spacing":0,
         "tilecount":20,
         "tileheight":36,
         "tiles":[
                {
                 "animation":[
                        {
                         "duration":100,
                         "tileid":0
                        }, 
                        {
                         "duration":100,
                         "tileid":1
                        }, 
                        {
                         "duration":100,
                         "tileid":2
                        }, 
                        {
                         "duration":100,
                         "tileid":3
                        }, 
                        {
                         "duration":100,
                         "tileid":4
                        }],
                 "id":0
                }, 
                {
                 "animation":[
                        {
                         "duration":100,
                         "tileid":5
                        }, 
                        {
                         "duration":100,
                         "tileid":6
                        }, 
                        {
                         "duration":100,
                         "tileid":7
                        }, 
                        {
                         "duration":100,
                         "tileid":8
                        }, 
                        {
                         "duration":100,
                         "tileid":9
                        }],
                 "id":5
                }, 
                {
                 "animation":[
                        {
                         "duration":100,
                         "tileid":10
                        }, 
                        {
                         "duration":100,
                         "tileid":11
                        }, 
                        {
                         "duration":100,
                         "tileid":12
                        }, 
                        {
                         "duration":100,
                         "tileid":13
                        }, 
                        {
                         "duration":100,
                         "tileid":14
                        }],
                 "id":10
                }, 
                {
                 "animation":[
                        {
                         "duration":100,
                         "tileid":15
                        }, 
                        {
                         "duration":100,
                         "tileid":16
                        }, 
                        {
                         "duration":100,
                         "tileid":17
                        }, 
                        {
                         "duration":100,
                         "tileid":18
                        }, 
                        {
                         "duration":100,
                         "tileid":19
                        }],
                 "id":15
                }],
         "tilewidth":64
        }, 
        {
         "columns":24,
         "firstgid":70,
         "grid":
            {
             "height":73,
             "orientation":"isometric",
             "width":48
            },
         "image":"tilemaps\/door_object.png",
         "imageheight":584,
         "imagewidth":1152,
         "margin":0,
         "name":"door_object",
         "objectalignment":"center",
         "spacing":0,
         "tilecount":192,
         "tileheight":73,
         "tiles":[
                {
                 "animation":[
                        {
                         "duration":100,
                         "tileid":0
                        }, 
                        {
                         "duration":100,
                         "tileid":1
                        }, 
                        {
                         "duration":100,
                         "tileid":2
                        }, 
                        {
                         "duration":100,
                         "tileid":3
                        }, 
                        {
                         "duration":100,
                         "tileid":4
                        }, 
                        {
                         "duration":100,
                         "tileid":5
                        }, 
                        {
                         "duration":100,
                         "tileid":6
                        }, 
                        {
                         "duration":100,
                         "tileid":7
                        }, 
                        {
                         "duration":100,
                         "tileid":8
                        }, 
                        {
                         "duration":100,
                         "tileid":9
                        }, 
                        {
                         "duration":100,
                         "tileid":10
                        }, 
                        {
                         "duration":100,
                         "tileid":11
                        }, 
                        {
                         "duration":100,
                         "tileid":12
                        }, 
                        {
                         "duration":100,
                         "tileid":13
                        },
                    
                        {
                         "duration":100,
                         "tileid":14
                        }, 
                        {
                         "duration":100,
                         "tileid":15
                        }, 
                        {
                         "duration":100,
                         "tileid":16
                        }, 
                        {
                         "duration":100,
                         "tileid":17
                        }, 
                        {
                         "duration":100,
                         "tileid":18
                        }, 
                        {
                         "duration":100,
                         "tileid":19
                        }, 
                        {
                         "duration":100,
                         "tileid":20
                        }, 
                        {
                         "duration":100,
                         "tileid":21
                        }, 
                        {
                         "duration":100,
                         "tileid":22
                        }, 
                        {
                         "duration":100,
                         "tileid":23
                        }],
                 "id":0
                }, 
                {
                 "animation":[
                        {
                         "duration":100,
                         "tileid":24
                        }, 
                        {
                         "duration":100,
                         "tileid":25
                        }, 
                        {
                         "duration":100,
                         "tileid":26
                        }, 
                        {
                         "duration":100,
                         "tileid":27
                        }, 
                        {
                         "duration":100,
                         "tileid":28
                        }, 
                        {
                         "duration":100,
                         "tileid":29
                        }, 
                        {
                         "duration":100,
                         "tileid":30
                        }, 
                        {
                         "duration":100,
                         "tileid":31
                        }, 
                        {
                         "duration":100,
                         "tileid":32
                        }, 
                        {
                         "duration":100,
                         "tileid":33
                        }, 
                        {
                         "duration":100,
                         "tileid":34
                        }, 
                        {
                         "duration":100,
                         "tileid":35
                        }, 
                        {
                         "duration":100,
                         "tileid":36
                        }, 
                        {
                         "duration":100,
                         "tileid":37
                        },
                    
                        {
                         "duration":100,
                         "tileid":38
                        }, 
                        {
                         "duration":100,
                         "tileid":39
                        }, 
                        {
                         "duration":100,
                         "tileid":40
                        }, 
                        {
                         "duration":100,
                         "tileid":41
                        }, 
                        {
                         "duration":100,
                         "tileid":42
                        }, 
                        {
                         "duration":100,
                         "tileid":43
                        }, 
                        {
                         "duration":100,
                         "tileid":44
                        }, 
                        {
                         "duration":100,
                         "tileid":45
                        }, 
                        {
                         "duration":100,
                         "tileid":46
                        }, 
                        {
                         "duration":100,
                         "tileid":47
                        }],
                 "id":24
                }, 
                {
                 "animation":[
                        {
                         "duration":100,
                         "tileid":48
                        }, 
                        {
                         "duration":100,
                         "tileid":49
                        }, 
                        {
                         "duration":100,
                         "tileid":50
                        }, 
                        {
                         "duration":100,
                         "tileid":51
                        }, 
                        {
                         "duration":100,
                         "tileid":52
                        }, 
                        {
                         "duration":100,
                         "tileid":53
                        }, 
                        {
                         "duration":100,
                         "tileid":54
                        }, 
                        {
                         "duration":100,
                         "tileid":55
                        }, 
                        {
                         "duration":100,
                         "tileid":56
                        }, 
                        {
                         "duration":100,
                         "tileid":57
                        }, 
                        {
                         "duration":100,
                         "tileid":58
                        }, 
                        {
                         "duration":100,
                         "tileid":59
                        }, 
                        {
                         "duration":100,
                         "tileid":60
                        }, 
                        {
                         "duration":100,
                         "tileid":61
                        },
                    
                        {
                         "duration":100,
                         "tileid":62
                        }, 
                        {
                         "duration":100,
                         "tileid":63
                        }, 
                        {
                         "duration":100,
                         "tileid":64
                        }, 
                        {
                         "duration":100,
                         "tileid":65
                        }, 
                        {
                         "duration":100,
                         "tileid":66
                        }, 
                        {
                         "duration":100,
                         "tileid":67
                        }, 
                        {
                         "duration":100,
                         "tileid":68
                        }, 
                        {
                         "duration":100,
                         "tileid":69
                        }, 
                        {
                         "duration":100,
                         "tileid":70
                        }, 
                        {
                         "duration":100,
                         "tileid":71
                        }],
                 "id":48
                }, 
                {
                 "animation":[
                        {
                         "duration":100,
                         "tileid":72
                        }, 
                        {
                         "duration":100,
                         "tileid":73
                        }, 
                        {
                         "duration":100,
                         "tileid":74
                        }, 
                        {
                         "duration":100,
                         "tileid":75
                        }, 
                        {
                         "duration":100,
                         "tileid":76
                        }, 
                        {
                         "duration":100,
                         "tileid":77
                        }, 
                        {
                         "duration":100,
                         "tileid":78
                        }, 
                        {
                         "duration":100,
                         "tileid":79
                        }, 
                        {
                         "duration":100,
                         "tileid":80
                        }, 
                        {
                         "duration":100,
                         "tileid":81
                        }, 
                        {
                         "duration":100,
                         "tileid":82
                        }, 
                        {
                         "duration":100,
                         "tileid":83
                        }, 
                        {
                         "duration":100,
                         "tileid":84
                        }, 
                        {
                         "duration":100,
                         "tileid":85
                        },
                    
                        {
                         "duration":100,
                         "tileid":86
                        }, 
                        {
                         "duration":100,
                         "tileid":87
                        }, 
                        {
                         "duration":100,
                         "tileid":88
                        }, 
                        {
                         "duration":100,
                         "tileid":89
                        }, 
                        {
                         "duration":100,
                         "tileid":90
                        }, 
                        {
                         "duration":100,
                         "tileid":91
                        }, 
                        {
                         "duration":100,
                         "tileid":92
                        }, 
                        {
                         "duration":100,
                         "tileid":93
                        }, 
                        {
                         "duration":100,
                         "tileid":94
                        }, 
                        {
                         "duration":100,
                         "tileid":95
                        }],
                 "id":72
                }, 
                {
                 "animation":[
                        {
                         "duration":100,
                         "tileid":96
                        }, 
                        {
                         "duration":100,
                         "tileid":97
                        }, 
                        {
                         "duration":100,
                         "tileid":98
                        }, 
                        {
                         "duration":100,
                         "tileid":99
                        }, 
                        {
                         "duration":100,
                         "tileid":100
                        }, 
                        {
                         "duration":100,
                         "tileid":101
                        }, 
                        {
                         "duration":100,
                         "tileid":102
                        }, 
                        {
                         "duration":100,
                         "tileid":103
                        }, 
                        {
                         "duration":100,
                         "tileid":104
                        }, 
                        {
                         "duration":100,
                         "tileid":105
                        }, 
                        {
                         "duration":100,
                         "tileid":106
                        }, 
                        {
                         "duration":100,
                         "tileid":107
                        }, 
                        {
                         "duration":100,
                         "tileid":108
                        }, 
                        {
                         "duration":100,
                         "tileid":109
                        },
                    
                        {
                         "duration":100,
                         "tileid":110
                        }, 
                        {
                         "duration":100,
                         "tileid":111
                        }, 
                        {
                         "duration":100,
                         "tileid":112
                        }, 
                        {
                         "duration":100,
                         "tileid":113
                        }, 
                        {
                         "duration":100,
                         "tileid":114
                        }, 
                        {
                         "duration":100,
                         "tileid":115
                        }, 
                        {
                         "duration":100,
                         "tileid":116
                        }, 
                        {
                         "duration":100,
                         "tileid":117
                        }, 
                        {
                         "duration":100,
                         "tileid":118
                        }, 
                        {
                         "duration":100,
                         "tileid":119
                        }],
                 "id":96
                }, 
                {
                 "animation":[
                        {
                         "duration":100,
                         "tileid":120
                        }, 
                        {
                         "duration":100,
                         "tileid":121
                        }, 
                        {
                         "duration":100,
                         "tileid":122
                        }, 
                        {
                         "duration":100,
                         "tileid":123
                        }, 
                        {
                         "duration":100,
                         "tileid":124
                        }, 
                        {
                         "duration":100,
                         "tileid":125
                        }, 
                        {
                         "duration":100,
                         "tileid":126
                        }, 
                        {
                         "duration":100,
                         "tileid":127
                        }, 
                        {
                         "duration":100,
                         "tileid":128
                        }, 
                        {
                         "duration":100,
                         "tileid":129
                        }, 
                        {
                         "duration":100,
                         "tileid":130
                        }, 
                        {
                         "duration":100,
                         "tileid":131
                        }, 
                        {
                         "duration":100,
                         "tileid":132
                        }, 
                        {
                         "duration":100,
                         "tileid":133
                        },
                    
                        {
                         "duration":100,
                         "tileid":134
                        }, 
                        {
                         "duration":100,
                         "tileid":135
                        }, 
                        {
                         "duration":100,
                         "tileid":136
                        }, 
                        {
                         "duration":100,
                         "tileid":137
                        }, 
                        {
                         "duration":100,
                         "tileid":138
                        }, 
                        {
                         "duration":100,
                         "tileid":139
                        }, 
                        {
                         "duration":100,
                         "tileid":140
                        }, 
                        {
                         "duration":100,
                         "tileid":141
                        }, 
                        {
                         "duration":100,
                         "tileid":142
                        }, 
                        {
                         "duration":100,
                         "tileid":143
                        }],
                 "id":120
                }, 
                {
                 "animation":[
                        {
                         "duration":100,
                         "tileid":144
                        }, 
                        {
                         "duration":100,
                         "tileid":145
                        }, 
                        {
                         "duration":100,
                         "tileid":146
                        }, 
                        {
                         "duration":100,
                         "tileid":147
                        }, 
                        {
                         "duration":100,
                         "tileid":148
                        }, 
                        {
                         "duration":100,
                         "tileid":149
                        }, 
                        {
                         "duration":100,
                         "tileid":150
                        }, 
                        {
                         "duration":100,
                         "tileid":151
                        }, 
                        {
                         "duration":100,
                         "tileid":152
                        }, 
                        {
                         "duration":100,
                         "tileid":153
                        }, 
                        {
                         "duration":100,
                         "tileid":154
                        }, 
                        {
                         "duration":100,
                         "tileid":155
                        }, 
                        {
                         "duration":100,
                         "tileid":156
                        }, 
                        {
                         "duration":100,
                         "tileid":157
                        },
                    
                        {
                         "duration":100,
                         "tileid":158
                        }, 
                        {
                         "duration":100,
                         "tileid":159
                        }, 
                        {
                         "duration":100,
                         "tileid":160
                        }, 
                        {
                         "duration":100,
                         "tileid":161
                        }, 
                        {
                         "duration":100,
                         "tileid":162
                        }, 
                        {
                         "duration":100,
                         "tileid":163
                        }, 
                        {
                         "duration":100,
                         "tileid":164
                        }, 
                        {
                         "duration":100,
                         "tileid":165
                        }, 
                        {
                         "duration":100,
                         "tileid":166
                        }, 
                        {
                         "duration":100,
                         "tileid":167
                        }],
                 "id":144
                }, 
                {
                 "animation":[
                        {
                         "duration":100,
                         "tileid":168
                        }, 
                        {
                         "duration":100,
                         "tileid":169
                        }, 
                        {
                         "duration":100,
                         "tileid":170
                        }, 
                        {
                         "duration":100,
                         "tileid":171
                        }, 
                        {
                         "duration":100,
                         "tileid":172
                        }, 
                        {
                         "duration":100,
                         "tileid":173
                        }, 
                        {
                         "duration":100,
                         "tileid":174
                        }, 
                        {
                         "duration":100,
                         "tileid":175
                        }, 
                        {
                         "duration":100,
                         "tileid":176
                        }, 
                        {
                         "duration":100,
                         "tileid":177
                        }, 
                        {
                         "duration":100,
                         "tileid":178
                        }, 
                        {
                         "duration":100,
                         "tileid":179
                        }, 
                        {
                         "duration":100,
                         "tileid":180
                        }, 
                        {
                         "duration":100,
                         "tileid":181
                        },
                    
                        {
                         "duration":100,
                         "tileid":182
                        }, 
                        {
                         "duration":100,
                         "tileid":183
                        }, 
                        {
                         "duration":100,
                         "tileid":184
                        }, 
                        {
                         "duration":100,
                         "tileid":185
                        }, 
                        {
                         "duration":100,
                         "tileid":186
                        }, 
                        {
                         "duration":100,
                         "tileid":187
                        }, 
                        {
                         "duration":100,
                         "tileid":188
                        }, 
                        {
                         "duration":100,
                         "tileid":189
                        }, 
                        {
                         "duration":100,
                         "tileid":190
                        }, 
                        {
                         "duration":100,
                         "tileid":191
                        }],
                 "id":168
                }],
         "tilewidth":48
        }, 
        {
         "columns":4,
         "firstgid":262,
         "image":"tilemaps\/wall_box.png",
         "imageheight":15,
         "imagewidth":56,
         "margin":0,
         "name":"wall_box",
         "objectalignment":"center",
         "spacing":0,
         "tilecount":4,
         "tileheight":15,
         "tiles":[
                {
                 "animation":[
                        {
                         "duration":1500,
                         "tileid":0
                        }, 
                        {
                         "duration":1500,
                         "tileid":1
                        }],
                 "id":0
                }, 
                {
                 "animation":[
                        {
                         "duration":1500,
                         "tileid":2
                        }, 
                        {
                         "duration":1500,
                         "tileid":3
                        }],
                 "id":2
                }],
         "tilewidth":14
        }, 
        {
         "columns":4,
         "firstgid":266,
         "image":"tilemaps\/shelf_object.png",
         "imageheight":40,
         "imagewidth":132,
         "margin":0,
         "name":"shelf_object",
         "objectalignment":"center",
         "spacing":0,
         "tilecount":4,
         "tileheight":40,
         "tilewidth":33
        }, 
        {
         "columns":14,
         "firstgid":270,
         "image":"tilemaps\/camera_object.png",
         "imageheight":17,
         "imagewidth":350,
         "margin":0,
         "name":"camera_object",
         "objectalignment":"center",
         "spacing":0,
         "tilecount":14,
         "tileheight":17,
         "tiles":[
                {
                 "animation":[
                        {
                         "duration":300,
                         "tileid":0
                        }, 
                        {
                         "duration":300,
                         "tileid":1
                        }, 
                        {
                         "duration":300,
                         "tileid":2
                        }, 
                        {
                         "duration":300,
                         "tileid":3
                        }, 
                        {
                         "duration":300,
                         "tileid":4
                        }, 
                        {
                         "duration":300,
                         "tileid":5
                        }, 
                        {
                         "duration":300,
                         "tileid":6
                        }, 
                        {
                         "duration":300,
                         "tileid":7
                        }, 
                        {
                         "duration":300,
                         "tileid":8
                        }, 
                        {
                         "duration":300,
                         "tileid":9
                        }, 
                        {
                         "duration":300,
                         "tileid":10
                        }, 
                        {
                         "duration":300,
                         "tileid":11
                        }, 
                        {
                         "duration":300,
                         "tileid":12
                        }, 
                        {
                         "duration":300,
                         "tileid":13
                        },
                    
                        {
                         "duration":300,
                         "tileid":12
                        }, 
                        {
                         "duration":300,
                         "tileid":11
                        }, 
                        {
                         "duration":300,
                         "tileid":10
                        }, 
                        {
                         "duration":300,
                         "tileid":9
                        }, 
                        {
                         "duration":300,
                         "tileid":8
                        }, 
                        {
                         "duration":300,
                         "tileid":7
                        }, 
                        {
                         "duration":300,
                         "tileid":6
                        }, 
                        {
                         "duration":300,
                         "tileid":5
                        }, 
                        {
                         "duration":300,
                         "tileid":4
                        }, 
                        {
                         "duration":300,
                         "tileid":3
                        }, 
                        {
                         "duration":300,
                         "tileid":2
                        }, 
                        {
                         "duration":300,
                         "tileid":1
                        }, 
                        {
                         "duration":300,
                         "tileid":0
                        }],
                 "id":0
                }],
         "tilewidth":25
        }, 
        {
         "columns":7,
         "firstgid":284,
         "image":"tilemaps\/chair_object.png",
         "imageheight":72,
         "imagewidth":238,
         "margin":0,
         "name":"chair_object",
         "objectalignment":"center",
         "spacing":0,
         "tilecount":14,
         "tileheight":36,
         "tilewidth":34
        }, 
        {
         "columns":2,
         "firstgid":298,
         "image":"tilemaps\/kitchen_1.png",
         "imageheight":111,
         "imagewidth":318,
         "margin":0,
         "name":"kitchen_1",
         "objectalignment":"center",
         "spacing":0,
         "tilecount":2,
         "tileheight":111,
         "tilewidth":159
        }, 
        {
         "columns":2,
         "firstgid":300,
         "image":"tilemaps\/kitchen_2.png",
         "imageheight":62,
         "imagewidth":92,
         "margin":0,
         "name":"kitchen_2",
         "objectalignment":"center",
         "spacing":0,
         "tilecount":2,
         "tileheight":62,
         "tilewidth":46
        }, 
        {
         "columns":5,
         "firstgid":302,
         "image":"tilemaps\/sofa_asset.png",
         "imageheight":188,
         "imagewidth":310,
         "margin":0,
         "name":"sofa_asset",
         "objectalignment":"center",
         "spacing":0,
         "tilecount":20,
         "tileheight":47,
         "tilewidth":62
        }],
 "tilewidth":32,
 "type":"map",
 "version":"1.10",
 "width":14
}